# compile vhdl design source files
vhdl xil_defaultlib  "../../../demosaic_4.srcs/sources_1/imports/hw/demosaic.vhd"
vhdl xil_defaultlib  "../../../demosaic_4.srcs/sources_1/imports/hw/demosaic_testbench.vhd"

# Do not sort compile order
nosort
