# compile verilog/system verilog design source files
verilog xil_defaultlib  "../../../demosaic_2.srcs/sim_1/imports/hw/mobile_ddr.v" --include "../../../demosaic_2.srcs/sources_1/imports/hw"

# compile glbl module
verilog xil_defaultlib "glbl.v"

# Do not sort compile order
nosort
